// Jest Snapshot v1, https://goo.gl/fbAQLP

exports[`renders correctly 1`] = `
initialize {
  "0": Object {
    "attribs": Object {
      "class": "bx--modal is-visible",
      "role": "presentation",
      "tabindex": "-1",
    },
    "children": Array [
      Object {
        "attribs": Object {
          "aria-labelledby": "bx--modal-header__label bx--modal-header__heading",
          "aria-modal": "true",
          "class": "bx--modal-container",
          "role": "dialog",
        },
        "children": Array [
          Object {
            "attribs": Object {
              "class": "bx--modal-header",
            },
            "children": Array [
              Object {
                "attribs": Object {
                  "aria-label": "close the modal",
                  "class": "bx--modal-close",
                  "title": "close the modal",
                  "type": "button",
                },
                "children": Array [
                  Object {
                    "attribs": Object {
                      "aria-label": "close the modal",
                      "class": "bx--modal-close__icon",
                      "focusable": "false",
                      "height": "20",
                      "preserveAspectRatio": "xMidYMid meet",
                      "role": "img",
                      "style": "will-change:transform",
                      "viewBox": "0 0 32 32",
                      "width": "20",
                      "xmlns": "http://www.w3.org/2000/svg",
                    },
                    "children": Array [
                      Object {
                        "attribs": Object {
                          "d": "M24 9.4L22.6 8 16 14.6 9.4 8 8 9.4l6.6 6.6L8 22.6 9.4 24l6.6-6.6 6.6 6.6 1.4-1.4-6.6-6.6L24 9.4z",
                        },
                        "children": Array [],
                        "name": "path",
                        "namespace": "http://www.w3.org/2000/svg",
                        "next": null,
                        "parent": [Circular],
                        "prev": null,
                        "type": "tag",
                        "x-attribsNamespace": Object {
                          "d": undefined,
                        },
                        "x-attribsPrefix": Object {
                          "d": undefined,
                        },
                      },
                    ],
                    "name": "svg",
                    "namespace": "http://www.w3.org/2000/svg",
                    "next": null,
                    "parent": [Circular],
                    "prev": null,
                    "type": "tag",
                    "x-attribsNamespace": Object {
                      "aria-label": undefined,
                      "class": undefined,
                      "focusable": undefined,
                      "height": undefined,
                      "preserveAspectRatio": undefined,
                      "role": undefined,
                      "style": undefined,
                      "viewBox": undefined,
                      "width": undefined,
                      "xmlns": "http://www.w3.org/2000/xmlns/",
                    },
                    "x-attribsPrefix": Object {
                      "aria-label": undefined,
                      "class": undefined,
                      "focusable": undefined,
                      "height": undefined,
                      "preserveAspectRatio": undefined,
                      "role": undefined,
                      "style": undefined,
                      "viewBox": undefined,
                      "width": undefined,
                      "xmlns": "",
                    },
                  },
                ],
                "name": "button",
                "namespace": "http://www.w3.org/1999/xhtml",
                "next": Object {
                  "attribs": Object {
                    "class": "bx--modal-header__label",
                  },
                  "children": Array [
                    Object {
                      "data": "loading",
                      "next": null,
                      "parent": [Circular],
                      "prev": null,
                      "type": "text",
                    },
                  ],
                  "name": "h2",
                  "namespace": "http://www.w3.org/1999/xhtml",
                  "next": Object {
                    "attribs": Object {
                      "class": "bx--modal-header__heading",
                    },
                    "children": Array [],
                    "name": "h3",
                    "namespace": "http://www.w3.org/1999/xhtml",
                    "next": null,
                    "parent": [Circular],
                    "prev": [Circular],
                    "type": "tag",
                    "x-attribsNamespace": Object {
                      "class": undefined,
                    },
                    "x-attribsPrefix": Object {
                      "class": undefined,
                    },
                  },
                  "parent": [Circular],
                  "prev": [Circular],
                  "type": "tag",
                  "x-attribsNamespace": Object {
                    "class": undefined,
                  },
                  "x-attribsPrefix": Object {
                    "class": undefined,
                  },
                },
                "parent": [Circular],
                "prev": null,
                "type": "tag",
                "x-attribsNamespace": Object {
                  "aria-label": undefined,
                  "class": undefined,
                  "title": undefined,
                  "type": undefined,
                },
                "x-attribsPrefix": Object {
                  "aria-label": undefined,
                  "class": undefined,
                  "title": undefined,
                  "type": undefined,
                },
              },
              Object {
                "attribs": Object {
                  "class": "bx--modal-header__label",
                },
                "children": Array [
                  Object {
                    "data": "loading",
                    "next": null,
                    "parent": [Circular],
                    "prev": null,
                    "type": "text",
                  },
                ],
                "name": "h2",
                "namespace": "http://www.w3.org/1999/xhtml",
                "next": Object {
                  "attribs": Object {
                    "class": "bx--modal-header__heading",
                  },
                  "children": Array [],
                  "name": "h3",
                  "namespace": "http://www.w3.org/1999/xhtml",
                  "next": null,
                  "parent": [Circular],
                  "prev": [Circular],
                  "type": "tag",
                  "x-attribsNamespace": Object {
                    "class": undefined,
                  },
                  "x-attribsPrefix": Object {
                    "class": undefined,
                  },
                },
                "parent": [Circular],
                "prev": Object {
                  "attribs": Object {
                    "aria-label": "close the modal",
                    "class": "bx--modal-close",
                    "title": "close the modal",
                    "type": "button",
                  },
                  "children": Array [
                    Object {
                      "attribs": Object {
                        "aria-label": "close the modal",
                        "class": "bx--modal-close__icon",
                        "focusable": "false",
                        "height": "20",
                        "preserveAspectRatio": "xMidYMid meet",
                        "role": "img",
                        "style": "will-change:transform",
                        "viewBox": "0 0 32 32",
                        "width": "20",
                        "xmlns": "http://www.w3.org/2000/svg",
                      },
                      "children": Array [
                        Object {
                          "attribs": Object {
                            "d": "M24 9.4L22.6 8 16 14.6 9.4 8 8 9.4l6.6 6.6L8 22.6 9.4 24l6.6-6.6 6.6 6.6 1.4-1.4-6.6-6.6L24 9.4z",
                          },
                          "children": Array [],
                          "name": "path",
                          "namespace": "http://www.w3.org/2000/svg",
                          "next": null,
                          "parent": [Circular],
                          "prev": null,
                          "type": "tag",
                          "x-attribsNamespace": Object {
                            "d": undefined,
                          },
                          "x-attribsPrefix": Object {
                            "d": undefined,
                          },
                        },
                      ],
                      "name": "svg",
                      "namespace": "http://www.w3.org/2000/svg",
                      "next": null,
                      "parent": [Circular],
                      "prev": null,
                      "type": "tag",
                      "x-attribsNamespace": Object {
                        "aria-label": undefined,
                        "class": undefined,
                        "focusable": undefined,
                        "height": undefined,
                        "preserveAspectRatio": undefined,
                        "role": undefined,
                        "style": undefined,
                        "viewBox": undefined,
                        "width": undefined,
                        "xmlns": "http://www.w3.org/2000/xmlns/",
                      },
                      "x-attribsPrefix": Object {
                        "aria-label": undefined,
                        "class": undefined,
                        "focusable": undefined,
                        "height": undefined,
                        "preserveAspectRatio": undefined,
                        "role": undefined,
                        "style": undefined,
                        "viewBox": undefined,
                        "width": undefined,
                        "xmlns": "",
                      },
                    },
                  ],
                  "name": "button",
                  "namespace": "http://www.w3.org/1999/xhtml",
                  "next": [Circular],
                  "parent": [Circular],
                  "prev": null,
                  "type": "tag",
                  "x-attribsNamespace": Object {
                    "aria-label": undefined,
                    "class": undefined,
                    "title": undefined,
                    "type": undefined,
                  },
                  "x-attribsPrefix": Object {
                    "aria-label": undefined,
                    "class": undefined,
                    "title": undefined,
                    "type": undefined,
                  },
                },
                "type": "tag",
                "x-attribsNamespace": Object {
                  "class": undefined,
                },
                "x-attribsPrefix": Object {
                  "class": undefined,
                },
              },
              Object {
                "attribs": Object {
                  "class": "bx--modal-header__heading",
                },
                "children": Array [],
                "name": "h3",
                "namespace": "http://www.w3.org/1999/xhtml",
                "next": null,
                "parent": [Circular],
                "prev": Object {
                  "attribs": Object {
                    "class": "bx--modal-header__label",
                  },
                  "children": Array [
                    Object {
                      "data": "loading",
                      "next": null,
                      "parent": [Circular],
                      "prev": null,
                      "type": "text",
                    },
                  ],
                  "name": "h2",
                  "namespace": "http://www.w3.org/1999/xhtml",
                  "next": [Circular],
                  "parent": [Circular],
                  "prev": Object {
                    "attribs": Object {
                      "aria-label": "close the modal",
                      "class": "bx--modal-close",
                      "title": "close the modal",
                      "type": "button",
                    },
                    "children": Array [
                      Object {
                        "attribs": Object {
                          "aria-label": "close the modal",
                          "class": "bx--modal-close__icon",
                          "focusable": "false",
                          "height": "20",
                          "preserveAspectRatio": "xMidYMid meet",
                          "role": "img",
                          "style": "will-change:transform",
                          "viewBox": "0 0 32 32",
                          "width": "20",
                          "xmlns": "http://www.w3.org/2000/svg",
                        },
                        "children": Array [
                          Object {
                            "attribs": Object {
                              "d": "M24 9.4L22.6 8 16 14.6 9.4 8 8 9.4l6.6 6.6L8 22.6 9.4 24l6.6-6.6 6.6 6.6 1.4-1.4-6.6-6.6L24 9.4z",
                            },
                            "children": Array [],
                            "name": "path",
                            "namespace": "http://www.w3.org/2000/svg",
                            "next": null,
                            "parent": [Circular],
                            "prev": null,
                            "type": "tag",
                            "x-attribsNamespace": Object {
                              "d": undefined,
                            },
                            "x-attribsPrefix": Object {
                              "d": undefined,
                            },
                          },
                        ],
                        "name": "svg",
                        "namespace": "http://www.w3.org/2000/svg",
                        "next": null,
                        "parent": [Circular],
                        "prev": null,
                        "type": "tag",
                        "x-attribsNamespace": Object {
                          "aria-label": undefined,
                          "class": undefined,
                          "focusable": undefined,
                          "height": undefined,
                          "preserveAspectRatio": undefined,
                          "role": undefined,
                          "style": undefined,
                          "viewBox": undefined,
                          "width": undefined,
                          "xmlns": "http://www.w3.org/2000/xmlns/",
                        },
                        "x-attribsPrefix": Object {
                          "aria-label": undefined,
                          "class": undefined,
                          "focusable": undefined,
                          "height": undefined,
                          "preserveAspectRatio": undefined,
                          "role": undefined,
                          "style": undefined,
                          "viewBox": undefined,
                          "width": undefined,
                          "xmlns": "",
                        },
                      },
                    ],
                    "name": "button",
                    "namespace": "http://www.w3.org/1999/xhtml",
                    "next": [Circular],
                    "parent": [Circular],
                    "prev": null,
                    "type": "tag",
                    "x-attribsNamespace": Object {
                      "aria-label": undefined,
                      "class": undefined,
                      "title": undefined,
                      "type": undefined,
                    },
                    "x-attribsPrefix": Object {
                      "aria-label": undefined,
                      "class": undefined,
                      "title": undefined,
                      "type": undefined,
                    },
                  },
                  "type": "tag",
                  "x-attribsNamespace": Object {
                    "class": undefined,
                  },
                  "x-attribsPrefix": Object {
                    "class": undefined,
                  },
                },
                "type": "tag",
                "x-attribsNamespace": Object {
                  "class": undefined,
                },
                "x-attribsPrefix": Object {
                  "class": undefined,
                },
              },
            ],
            "name": "div",
            "namespace": "http://www.w3.org/1999/xhtml",
            "next": Object {
              "attribs": Object {
                "class": "bx--modal-content",
              },
              "children": Array [
                Object {
                  "attribs": Object {
                    "style": "height:200px",
                  },
                  "children": Array [
                    Object {
                      "attribs": Object {
                        "class": "bx--loading-overlay",
                      },
                      "children": Array [
                        Object {
                          "attribs": Object {
                            "aria-label": "Active loading indicator",
                            "aria-live": "assertive",
                            "class": "bx--loading",
                          },
                          "children": Array [
                            Object {
                              "attribs": Object {
                                "class": "bx--loading__svg",
                                "viewBox": "-75 -75 150 150",
                              },
                              "children": Array [
                                Object {
                                  "attribs": Object {},
                                  "children": Array [
                                    Object {
                                      "data": "Active loading indicator",
                                      "next": null,
                                      "parent": [Circular],
                                      "prev": null,
                                      "type": "text",
                                    },
                                  ],
                                  "name": "title",
                                  "namespace": "http://www.w3.org/2000/svg",
                                  "next": Object {
                                    "attribs": Object {
                                      "class": "bx--loading__stroke",
                                      "cx": "0",
                                      "cy": "0",
                                      "r": "37.5",
                                    },
                                    "children": Array [],
                                    "name": "circle",
                                    "namespace": "http://www.w3.org/2000/svg",
                                    "next": null,
                                    "parent": [Circular],
                                    "prev": [Circular],
                                    "type": "tag",
                                    "x-attribsNamespace": Object {
                                      "class": undefined,
                                      "cx": undefined,
                                      "cy": undefined,
                                      "r": undefined,
                                    },
                                    "x-attribsPrefix": Object {
                                      "class": undefined,
                                      "cx": undefined,
                                      "cy": undefined,
                                      "r": undefined,
                                    },
                                  },
                                  "parent": [Circular],
                                  "prev": null,
                                  "type": "tag",
                                  "x-attribsNamespace": Object {},
                                  "x-attribsPrefix": Object {},
                                },
                                Object {
                                  "attribs": Object {
                                    "class": "bx--loading__stroke",
                                    "cx": "0",
                                    "cy": "0",
                                    "r": "37.5",
                                  },
                                  "children": Array [],
                                  "name": "circle",
                                  "namespace": "http://www.w3.org/2000/svg",
                                  "next": null,
                                  "parent": [Circular],
                                  "prev": Object {
                                    "attribs": Object {},
                                    "children": Array [
                                      Object {
                                        "data": "Active loading indicator",
                                        "next": null,
                                        "parent": [Circular],
                                        "prev": null,
                                        "type": "text",
                                      },
                                    ],
                                    "name": "title",
                                    "namespace": "http://www.w3.org/2000/svg",
                                    "next": [Circular],
                                    "parent": [Circular],
                                    "prev": null,
                                    "type": "tag",
                                    "x-attribsNamespace": Object {},
                                    "x-attribsPrefix": Object {},
                                  },
                                  "type": "tag",
                                  "x-attribsNamespace": Object {
                                    "class": undefined,
                                    "cx": undefined,
                                    "cy": undefined,
                                    "r": undefined,
                                  },
                                  "x-attribsPrefix": Object {
                                    "class": undefined,
                                    "cx": undefined,
                                    "cy": undefined,
                                    "r": undefined,
                                  },
                                },
                              ],
                              "name": "svg",
                              "namespace": "http://www.w3.org/2000/svg",
                              "next": null,
                              "parent": [Circular],
                              "prev": null,
                              "type": "tag",
                              "x-attribsNamespace": Object {
                                "class": undefined,
                                "viewBox": undefined,
                              },
                              "x-attribsPrefix": Object {
                                "class": undefined,
                                "viewBox": undefined,
                              },
                            },
                          ],
                          "name": "div",
                          "namespace": "http://www.w3.org/1999/xhtml",
                          "next": null,
                          "parent": [Circular],
                          "prev": null,
                          "type": "tag",
                          "x-attribsNamespace": Object {
                            "aria-label": undefined,
                            "aria-live": undefined,
                            "class": undefined,
                          },
                          "x-attribsPrefix": Object {
                            "aria-label": undefined,
                            "aria-live": undefined,
                            "class": undefined,
                          },
                        },
                      ],
                      "name": "div",
                      "namespace": "http://www.w3.org/1999/xhtml",
                      "next": null,
                      "parent": [Circular],
                      "prev": null,
                      "type": "tag",
                      "x-attribsNamespace": Object {
                        "class": undefined,
                      },
                      "x-attribsPrefix": Object {
                        "class": undefined,
                      },
                    },
                  ],
                  "name": "div",
                  "namespace": "http://www.w3.org/1999/xhtml",
                  "next": null,
                  "parent": [Circular],
                  "prev": null,
                  "type": "tag",
                  "x-attribsNamespace": Object {
                    "style": undefined,
                  },
                  "x-attribsPrefix": Object {
                    "style": undefined,
                  },
                },
              ],
              "name": "div",
              "namespace": "http://www.w3.org/1999/xhtml",
              "next": null,
              "parent": [Circular],
              "prev": [Circular],
              "type": "tag",
              "x-attribsNamespace": Object {
                "class": undefined,
              },
              "x-attribsPrefix": Object {
                "class": undefined,
              },
            },
            "parent": [Circular],
            "prev": null,
            "type": "tag",
            "x-attribsNamespace": Object {
              "class": undefined,
            },
            "x-attribsPrefix": Object {
              "class": undefined,
            },
          },
          Object {
            "attribs": Object {
              "class": "bx--modal-content",
            },
            "children": Array [
              Object {
                "attribs": Object {
                  "style": "height:200px",
                },
                "children": Array [
                  Object {
                    "attribs": Object {
                      "class": "bx--loading-overlay",
                    },
                    "children": Array [
                      Object {
                        "attribs": Object {
                          "aria-label": "Active loading indicator",
                          "aria-live": "assertive",
                          "class": "bx--loading",
                        },
                        "children": Array [
                          Object {
                            "attribs": Object {
                              "class": "bx--loading__svg",
                              "viewBox": "-75 -75 150 150",
                            },
                            "children": Array [
                              Object {
                                "attribs": Object {},
                                "children": Array [
                                  Object {
                                    "data": "Active loading indicator",
                                    "next": null,
                                    "parent": [Circular],
                                    "prev": null,
                                    "type": "text",
                                  },
                                ],
                                "name": "title",
                                "namespace": "http://www.w3.org/2000/svg",
                                "next": Object {
                                  "attribs": Object {
                                    "class": "bx--loading__stroke",
                                    "cx": "0",
                                    "cy": "0",
                                    "r": "37.5",
                                  },
                                  "children": Array [],
                                  "name": "circle",
                                  "namespace": "http://www.w3.org/2000/svg",
                                  "next": null,
                                  "parent": [Circular],
                                  "prev": [Circular],
                                  "type": "tag",
                                  "x-attribsNamespace": Object {
                                    "class": undefined,
                                    "cx": undefined,
                                    "cy": undefined,
                                    "r": undefined,
                                  },
                                  "x-attribsPrefix": Object {
                                    "class": undefined,
                                    "cx": undefined,
                                    "cy": undefined,
                                    "r": undefined,
                                  },
                                },
                                "parent": [Circular],
                                "prev": null,
                                "type": "tag",
                                "x-attribsNamespace": Object {},
                                "x-attribsPrefix": Object {},
                              },
                              Object {
                                "attribs": Object {
                                  "class": "bx--loading__stroke",
                                  "cx": "0",
                                  "cy": "0",
                                  "r": "37.5",
                                },
                                "children": Array [],
                                "name": "circle",
                                "namespace": "http://www.w3.org/2000/svg",
                                "next": null,
                                "parent": [Circular],
                                "prev": Object {
                                  "attribs": Object {},
                                  "children": Array [
                                    Object {
                                      "data": "Active loading indicator",
                                      "next": null,
                                      "parent": [Circular],
                                      "prev": null,
                                      "type": "text",
                                    },
                                  ],
                                  "name": "title",
                                  "namespace": "http://www.w3.org/2000/svg",
                                  "next": [Circular],
                                  "parent": [Circular],
                                  "prev": null,
                                  "type": "tag",
                                  "x-attribsNamespace": Object {},
                                  "x-attribsPrefix": Object {},
                                },
                                "type": "tag",
                                "x-attribsNamespace": Object {
                                  "class": undefined,
                                  "cx": undefined,
                                  "cy": undefined,
                                  "r": undefined,
                                },
                                "x-attribsPrefix": Object {
                                  "class": undefined,
                                  "cx": undefined,
                                  "cy": undefined,
                                  "r": undefined,
                                },
                              },
                            ],
                            "name": "svg",
                            "namespace": "http://www.w3.org/2000/svg",
                            "next": null,
                            "parent": [Circular],
                            "prev": null,
                            "type": "tag",
                            "x-attribsNamespace": Object {
                              "class": undefined,
                              "viewBox": undefined,
                            },
                            "x-attribsPrefix": Object {
                              "class": undefined,
                              "viewBox": undefined,
                            },
                          },
                        ],
                        "name": "div",
                        "namespace": "http://www.w3.org/1999/xhtml",
                        "next": null,
                        "parent": [Circular],
                        "prev": null,
                        "type": "tag",
                        "x-attribsNamespace": Object {
                          "aria-label": undefined,
                          "aria-live": undefined,
                          "class": undefined,
                        },
                        "x-attribsPrefix": Object {
                          "aria-label": undefined,
                          "aria-live": undefined,
                          "class": undefined,
                        },
                      },
                    ],
                    "name": "div",
                    "namespace": "http://www.w3.org/1999/xhtml",
                    "next": null,
                    "parent": [Circular],
                    "prev": null,
                    "type": "tag",
                    "x-attribsNamespace": Object {
                      "class": undefined,
                    },
                    "x-attribsPrefix": Object {
                      "class": undefined,
                    },
                  },
                ],
                "name": "div",
                "namespace": "http://www.w3.org/1999/xhtml",
                "next": null,
                "parent": [Circular],
                "prev": null,
                "type": "tag",
                "x-attribsNamespace": Object {
                  "style": undefined,
                },
                "x-attribsPrefix": Object {
                  "style": undefined,
                },
              },
            ],
            "name": "div",
            "namespace": "http://www.w3.org/1999/xhtml",
            "next": null,
            "parent": [Circular],
            "prev": Object {
              "attribs": Object {
                "class": "bx--modal-header",
              },
              "children": Array [
                Object {
                  "attribs": Object {
                    "aria-label": "close the modal",
                    "class": "bx--modal-close",
                    "title": "close the modal",
                    "type": "button",
                  },
                  "children": Array [
                    Object {
                      "attribs": Object {
                        "aria-label": "close the modal",
                        "class": "bx--modal-close__icon",
                        "focusable": "false",
                        "height": "20",
                        "preserveAspectRatio": "xMidYMid meet",
                        "role": "img",
                        "style": "will-change:transform",
                        "viewBox": "0 0 32 32",
                        "width": "20",
                        "xmlns": "http://www.w3.org/2000/svg",
                      },
                      "children": Array [
                        Object {
                          "attribs": Object {
                            "d": "M24 9.4L22.6 8 16 14.6 9.4 8 8 9.4l6.6 6.6L8 22.6 9.4 24l6.6-6.6 6.6 6.6 1.4-1.4-6.6-6.6L24 9.4z",
                          },
                          "children": Array [],
                          "name": "path",
                          "namespace": "http://www.w3.org/2000/svg",
                          "next": null,
                          "parent": [Circular],
                          "prev": null,
                          "type": "tag",
                          "x-attribsNamespace": Object {
                            "d": undefined,
                          },
                          "x-attribsPrefix": Object {
                            "d": undefined,
                          },
                        },
                      ],
                      "name": "svg",
                      "namespace": "http://www.w3.org/2000/svg",
                      "next": null,
                      "parent": [Circular],
                      "prev": null,
                      "type": "tag",
                      "x-attribsNamespace": Object {
                        "aria-label": undefined,
                        "class": undefined,
                        "focusable": undefined,
                        "height": undefined,
                        "preserveAspectRatio": undefined,
                        "role": undefined,
                        "style": undefined,
                        "viewBox": undefined,
                        "width": undefined,
                        "xmlns": "http://www.w3.org/2000/xmlns/",
                      },
                      "x-attribsPrefix": Object {
                        "aria-label": undefined,
                        "class": undefined,
                        "focusable": undefined,
                        "height": undefined,
                        "preserveAspectRatio": undefined,
                        "role": undefined,
                        "style": undefined,
                        "viewBox": undefined,
                        "width": undefined,
                        "xmlns": "",
                      },
                    },
                  ],
                  "name": "button",
                  "namespace": "http://www.w3.org/1999/xhtml",
                  "next": Object {
                    "attribs": Object {
                      "class": "bx--modal-header__label",
                    },
                    "children": Array [
                      Object {
                        "data": "loading",
                        "next": null,
                        "parent": [Circular],
                        "prev": null,
                        "type": "text",
                      },
                    ],
                    "name": "h2",
                    "namespace": "http://www.w3.org/1999/xhtml",
                    "next": Object {
                      "attribs": Object {
                        "class": "bx--modal-header__heading",
                      },
                      "children": Array [],
                      "name": "h3",
                      "namespace": "http://www.w3.org/1999/xhtml",
                      "next": null,
                      "parent": [Circular],
                      "prev": [Circular],
                      "type": "tag",
                      "x-attribsNamespace": Object {
                        "class": undefined,
                      },
                      "x-attribsPrefix": Object {
                        "class": undefined,
                      },
                    },
                    "parent": [Circular],
                    "prev": [Circular],
                    "type": "tag",
                    "x-attribsNamespace": Object {
                      "class": undefined,
                    },
                    "x-attribsPrefix": Object {
                      "class": undefined,
                    },
                  },
                  "parent": [Circular],
                  "prev": null,
                  "type": "tag",
                  "x-attribsNamespace": Object {
                    "aria-label": undefined,
                    "class": undefined,
                    "title": undefined,
                    "type": undefined,
                  },
                  "x-attribsPrefix": Object {
                    "aria-label": undefined,
                    "class": undefined,
                    "title": undefined,
                    "type": undefined,
                  },
                },
                Object {
                  "attribs": Object {
                    "class": "bx--modal-header__label",
                  },
                  "children": Array [
                    Object {
                      "data": "loading",
                      "next": null,
                      "parent": [Circular],
                      "prev": null,
                      "type": "text",
                    },
                  ],
                  "name": "h2",
                  "namespace": "http://www.w3.org/1999/xhtml",
                  "next": Object {
                    "attribs": Object {
                      "class": "bx--modal-header__heading",
                    },
                    "children": Array [],
                    "name": "h3",
                    "namespace": "http://www.w3.org/1999/xhtml",
                    "next": null,
                    "parent": [Circular],
                    "prev": [Circular],
                    "type": "tag",
                    "x-attribsNamespace": Object {
                      "class": undefined,
                    },
                    "x-attribsPrefix": Object {
                      "class": undefined,
                    },
                  },
                  "parent": [Circular],
                  "prev": Object {
                    "attribs": Object {
                      "aria-label": "close the modal",
                      "class": "bx--modal-close",
                      "title": "close the modal",
                      "type": "button",
                    },
                    "children": Array [
                      Object {
                        "attribs": Object {
                          "aria-label": "close the modal",
                          "class": "bx--modal-close__icon",
                          "focusable": "false",
                          "height": "20",
                          "preserveAspectRatio": "xMidYMid meet",
                          "role": "img",
                          "style": "will-change:transform",
                          "viewBox": "0 0 32 32",
                          "width": "20",
                          "xmlns": "http://www.w3.org/2000/svg",
                        },
                        "children": Array [
                          Object {
                            "attribs": Object {
                              "d": "M24 9.4L22.6 8 16 14.6 9.4 8 8 9.4l6.6 6.6L8 22.6 9.4 24l6.6-6.6 6.6 6.6 1.4-1.4-6.6-6.6L24 9.4z",
                            },
                            "children": Array [],
                            "name": "path",
                            "namespace": "http://www.w3.org/2000/svg",
                            "next": null,
                            "parent": [Circular],
                            "prev": null,
                            "type": "tag",
                            "x-attribsNamespace": Object {
                              "d": undefined,
                            },
                            "x-attribsPrefix": Object {
                              "d": undefined,
                            },
                          },
                        ],
                        "name": "svg",
                        "namespace": "http://www.w3.org/2000/svg",
                        "next": null,
                        "parent": [Circular],
                        "prev": null,
                        "type": "tag",
                        "x-attribsNamespace": Object {
                          "aria-label": undefined,
                          "class": undefined,
                          "focusable": undefined,
                          "height": undefined,
                          "preserveAspectRatio": undefined,
                          "role": undefined,
                          "style": undefined,
                          "viewBox": undefined,
                          "width": undefined,
                          "xmlns": "http://www.w3.org/2000/xmlns/",
                        },
                        "x-attribsPrefix": Object {
                          "aria-label": undefined,
                          "class": undefined,
                          "focusable": undefined,
                          "height": undefined,
                          "preserveAspectRatio": undefined,
                          "role": undefined,
                          "style": undefined,
                          "viewBox": undefined,
                          "width": undefined,
                          "xmlns": "",
                        },
                      },
                    ],
                    "name": "button",
                    "namespace": "http://www.w3.org/1999/xhtml",
                    "next": [Circular],
                    "parent": [Circular],
                    "prev": null,
                    "type": "tag",
                    "x-attribsNamespace": Object {
                      "aria-label": undefined,
                      "class": undefined,
                      "title": undefined,
                      "type": undefined,
                    },
                    "x-attribsPrefix": Object {
                      "aria-label": undefined,
                      "class": undefined,
                      "title": undefined,
                      "type": undefined,
                    },
                  },
                  "type": "tag",
                  "x-attribsNamespace": Object {
                    "class": undefined,
                  },
                  "x-attribsPrefix": Object {
                    "class": undefined,
                  },
                },
                Object {
                  "attribs": Object {
                    "class": "bx--modal-header__heading",
                  },
                  "children": Array [],
                  "name": "h3",
                  "namespace": "http://www.w3.org/1999/xhtml",
                  "next": null,
                  "parent": [Circular],
                  "prev": Object {
                    "attribs": Object {
                      "class": "bx--modal-header__label",
                    },
                    "children": Array [
                      Object {
                        "data": "loading",
                        "next": null,
                        "parent": [Circular],
                        "prev": null,
                        "type": "text",
                      },
                    ],
                    "name": "h2",
                    "namespace": "http://www.w3.org/1999/xhtml",
                    "next": [Circular],
                    "parent": [Circular],
                    "prev": Object {
                      "attribs": Object {
                        "aria-label": "close the modal",
                        "class": "bx--modal-close",
                        "title": "close the modal",
                        "type": "button",
                      },
                      "children": Array [
                        Object {
                          "attribs": Object {
                            "aria-label": "close the modal",
                            "class": "bx--modal-close__icon",
                            "focusable": "false",
                            "height": "20",
                            "preserveAspectRatio": "xMidYMid meet",
                            "role": "img",
                            "style": "will-change:transform",
                            "viewBox": "0 0 32 32",
                            "width": "20",
                            "xmlns": "http://www.w3.org/2000/svg",
                          },
                          "children": Array [
                            Object {
                              "attribs": Object {
                                "d": "M24 9.4L22.6 8 16 14.6 9.4 8 8 9.4l6.6 6.6L8 22.6 9.4 24l6.6-6.6 6.6 6.6 1.4-1.4-6.6-6.6L24 9.4z",
                              },
                              "children": Array [],
                              "name": "path",
                              "namespace": "http://www.w3.org/2000/svg",
                              "next": null,
                              "parent": [Circular],
                              "prev": null,
                              "type": "tag",
                              "x-attribsNamespace": Object {
                                "d": undefined,
                              },
                              "x-attribsPrefix": Object {
                                "d": undefined,
                              },
                            },
                          ],
                          "name": "svg",
                          "namespace": "http://www.w3.org/2000/svg",
                          "next": null,
                          "parent": [Circular],
                          "prev": null,
                          "type": "tag",
                          "x-attribsNamespace": Object {
                            "aria-label": undefined,
                            "class": undefined,
                            "focusable": undefined,
                            "height": undefined,
                            "preserveAspectRatio": undefined,
                            "role": undefined,
                            "style": undefined,
                            "viewBox": undefined,
                            "width": undefined,
                            "xmlns": "http://www.w3.org/2000/xmlns/",
                          },
                          "x-attribsPrefix": Object {
                            "aria-label": undefined,
                            "class": undefined,
                            "focusable": undefined,
                            "height": undefined,
                            "preserveAspectRatio": undefined,
                            "role": undefined,
                            "style": undefined,
                            "viewBox": undefined,
                            "width": undefined,
                            "xmlns": "",
                          },
                        },
                      ],
                      "name": "button",
                      "namespace": "http://www.w3.org/1999/xhtml",
                      "next": [Circular],
                      "parent": [Circular],
                      "prev": null,
                      "type": "tag",
                      "x-attribsNamespace": Object {
                        "aria-label": undefined,
                        "class": undefined,
                        "title": undefined,
                        "type": undefined,
                      },
                      "x-attribsPrefix": Object {
                        "aria-label": undefined,
                        "class": undefined,
                        "title": undefined,
                        "type": undefined,
                      },
                    },
                    "type": "tag",
                    "x-attribsNamespace": Object {
                      "class": undefined,
                    },
                    "x-attribsPrefix": Object {
                      "class": undefined,
                    },
                  },
                  "type": "tag",
                  "x-attribsNamespace": Object {
                    "class": undefined,
                  },
                  "x-attribsPrefix": Object {
                    "class": undefined,
                  },
                },
              ],
              "name": "div",
              "namespace": "http://www.w3.org/1999/xhtml",
              "next": [Circular],
              "parent": [Circular],
              "prev": null,
              "type": "tag",
              "x-attribsNamespace": Object {
                "class": undefined,
              },
              "x-attribsPrefix": Object {
                "class": undefined,
              },
            },
            "type": "tag",
            "x-attribsNamespace": Object {
              "class": undefined,
            },
            "x-attribsPrefix": Object {
              "class": undefined,
            },
          },
        ],
        "name": "div",
        "namespace": "http://www.w3.org/1999/xhtml",
        "next": null,
        "parent": [Circular],
        "prev": null,
        "type": "tag",
        "x-attribsNamespace": Object {
          "aria-labelledby": undefined,
          "aria-modal": undefined,
          "class": undefined,
          "role": undefined,
        },
        "x-attribsPrefix": Object {
          "aria-labelledby": undefined,
          "aria-modal": undefined,
          "class": undefined,
          "role": undefined,
        },
      },
    ],
    "name": "div",
    "namespace": "http://www.w3.org/1999/xhtml",
    "next": null,
    "parent": null,
    "prev": null,
    "root": Object {
      "attribs": Object {},
      "children": Array [
        [Circular],
      ],
      "name": "root",
      "namespace": "http://www.w3.org/1999/xhtml",
      "next": null,
      "parent": null,
      "prev": null,
      "type": "root",
      "x-attribsNamespace": Object {},
      "x-attribsPrefix": Object {},
    },
    "type": "tag",
    "x-attribsNamespace": Object {
      "class": undefined,
      "role": undefined,
      "tabindex": undefined,
    },
    "x-attribsPrefix": Object {
      "class": undefined,
      "role": undefined,
      "tabindex": undefined,
    },
  },
  "_root": [Circular],
  "length": 1,
  "options": Object {
    "decodeEntities": true,
    "normalizeWhitespace": false,
    "withDomLvl1": true,
    "xml": false,
  },
}
`;
